<?xml version="1.0" encoding="UTF-8"?>
<session version="1.0">
<refactoring accessors="true" comment="Delete element from project &apos;HelloWorld&apos;&#x0D;&#x0A;- Original project: &apos;HelloWorld&apos;&#x0D;&#x0A;- Original element: &apos;ee.bcs.koolitus.Harjutus.java&apos;" description="Delete element" element1="/src&lt;ee.bcs.koolitus{Harjutus.java" elements="1" flags="589830" id="org.eclipse.jdt.ui.delete" resources="0" stamp="1484660532869" subPackages="false" version="1.0"/>
</session>