<?xml version="1.0" encoding="UTF-8"?>
<session version="1.0">
<refactoring comment="Delete resource &apos;Primitiivid&apos;" deleteContents="false" description="Delete resource &apos;Primitiivid&apos;" element1="/Primitiivid" flags="7" id="org.eclipse.ltk.core.refactoring.delete.resources" resources="1" stamp="1484651310767"/>
</session>